@startuml
hide circle

class Bulletin{
id : string
période : {"matin", "après-midi", "soirée", "nuit"}
date : date
}

class Lieu{
nom : string {key}
}

class Ville{
}

class Massif_Montagnieux{
altitude : int
}

class Département{
nom : string {key}
climat : {"tempéré", "continentale", "océanique",
"montagnard", "méditerranéen"}
}

class Région{
nom : string {key}
}


class Prévision{
description : string {local key}
}

class Température{
réelle : float
ressentie : float
min : int
max : int
gradient : float
}

class Précipitation{
pluviometrie : float
}

class Vent{
vitesse : float
degré : int[0, 360]
direction : {"Nord", "Nord-Est", "Sud"...}
rotationnel : float
}

class Type_Vent{
nom : string {key}
}

class Nébulosité{
degré : {"sans nuages", "clair", 
"peu nuageux", "nuageux", 
"très nuageux", "couvert",
 "complétement obscurci"}
luminosite : int 
}

class Nuage{
nom : string {key}
altitude : int
}

class Capteur{
ID : string {key}
opérationnel: booléen
valeur : float
derniere_revision : date
}

class Historique{
début : date
fin : date
}

class Type_Précipitation{
nom : string {key}
}


class Type_Capteur{
nom : string {key}
}

class Type_Prevision{
nom : string {key}
}



Prévision "1..N" --* "1" Bulletin : compose
Précipitation --|> Prévision
Vent --|> Prévision
Température --|> Prévision
Lieu "1" -- "*" Bulletin : situe
Capteur "1..N" -- "*" Bulletin : permet
Historique "*" -- "1" Capteur : retrace
Historique "*" -- "1" Lieu : situe
Capteur -[hidden] Prévision
Type_Capteur "1..N" -- "*" Capteur :caractérise
Type_Capteur -[hidden] Prévision
Lieu "1" - "*" Capteur : se trouve
Massif_Montagnieux --|> Lieu
Ville -|> Lieu
Département "1" o-- "*" Ville
Département "1..2" o- "*" Massif_Montagnieux
Région "1" o-- "*" Département
Type_Précipitation "1" -- "*" Précipitation
Prévision "*" <|- "1" Nébulosité
Nébulosité "*" - "*" Nuage : liste
Type_Vent "0..1" -- "*" Vent : caractérise
Type_Prevision "1..N" -- "1..N" Type_Capteur : permet 
@enduml